\relax 
\providecommand\hyper@newdestlabel[2]{}
\providecommand\HyperFirstAtBeginDocument{\AtBeginDocument}
\HyperFirstAtBeginDocument{\ifx\hyper@anchor\@undefined
\global\let\oldcontentsline\contentsline
\gdef\contentsline#1#2#3#4{\oldcontentsline{#1}{#2}{#3}}
\global\let\oldnewlabel\newlabel
\gdef\newlabel#1#2{\newlabelxx{#1}#2}
\gdef\newlabelxx#1#2#3#4#5#6{\oldnewlabel{#1}{{#2}{#3}}}
\AtEndDocument{\ifx\hyper@anchor\@undefined
\let\contentsline\oldcontentsline
\let\newlabel\oldnewlabel
\fi}
\fi}
\global\let\hyper@last\relax 
\gdef\HyperFirstAtBeginDocument#1{#1}
\providecommand\HyField@AuxAddToFields[1]{}
\providecommand\HyField@AuxAddToCoFields[2]{}
\@writefile{toc}{\contentsline {chapter}{\numberline {1}Wst\IeC {\k e}p}{3}{chapter.1}}
\@writefile{lof}{\addvspace {10\p@ }}
\@writefile{lot}{\addvspace {10\p@ }}
\newlabel{rozdz.1}{{1}{3}{Wstęp}{chapter.1}{}}
\citation{chorale_harmoniation}
\@writefile{toc}{\contentsline {section}{\numberline {1.1}Problematyka i zakres pracy}{4}{section.1.1}}
\@writefile{toc}{\contentsline {section}{\numberline {1.2}Cele pracy}{5}{section.1.2}}
\@writefile{toc}{\contentsline {subsection}{\numberline {1.2.1}Analiza przypadk\IeC {\'o}w u\IeC {\.z}ycia r\IeC {\'o}\IeC {\.z}nych technologii do harmonizacji}{5}{subsection.1.2.1}}
\citation{chorale_harmoniation}
\citation{RNN}
\citation{chorale_harmoniation}
\@writefile{toc}{\contentsline {subsection}{\numberline {1.2.2}Przedstawienie propozycji rozwi\IeC {\k a}zania problemu}{6}{subsection.1.2.2}}
\@writefile{toc}{\contentsline {subsection}{\numberline {1.2.3}Ocena, czy jednostki LSTM nadaj\IeC {\k a} si\IeC {\k e} do tego typu zada\IeC {\'n} [TYTU\IeC {\L } DO ZMIANY]}{6}{subsection.1.2.3}}
\@writefile{toc}{\contentsline {subsection}{\numberline {1.2.4}Przedstawienie prototypu programu maj\IeC {\k a}cego dokonywa\IeC {\'c} automatycznej harmonizacji melodii}{6}{subsection.1.2.4}}
\@writefile{toc}{\contentsline {subsection}{\numberline {1.2.5}Ocena mo\IeC {\.z}liwo\IeC {\'s}ci wdro\IeC {\.z}enia proponowanych rozwi\IeC {\k a}za\IeC {\'n}, ich warto\IeC {\'s}\IeC {\'c} praktyczna, lokalne i globalne mo\IeC {\.z}liwo\IeC {\'s}ci zastosowania}{6}{subsection.1.2.5}}
\@writefile{toc}{\contentsline {section}{\numberline {1.3}Metoda badawcza}{6}{section.1.3}}
\citation{jak_nie_pisac_xD}
\citation{GA_harmonization}
\citation{lstm_composition_text}
\citation{lstm_composition}
\citation{lstm_emotions}
\citation{lstm_polyphonic_composition_Beijing}
\@writefile{toc}{\contentsline {section}{\numberline {1.4}Przegl\IeC {\k a}d literatury w dziedzinie}{7}{section.1.4}}
\citation{segmentation}
\citation{rhythm}
\citation{recognition}
\citation{chorale_harmoniation}
\@writefile{toc}{\contentsline {subsection}{\numberline {1.4.1}Automatyczna harmonizacja melodii}{8}{subsection.1.4.1}}
\@writefile{toc}{\contentsline {subsubsection}{Modele Markov'a}{8}{section*.2}}
\citation{GA_harmonization}
\citation{RNN_class}
\@writefile{toc}{\contentsline {subsubsection}{Algorytmy genetyczne}{9}{section*.3}}
\@writefile{toc}{\contentsline {subsubsection}{Rozwi\IeC {\k a}zania rekurencyjne}{9}{section*.4}}
\@writefile{toc}{\contentsline {subsection}{\numberline {1.4.2}Wady i s\IeC {\l }abe punkty istniej\IeC {\k a}cych rozwi\IeC {\k a}za\IeC {\'n}}{9}{subsection.1.4.2}}
\citation{chorale_harmoniation}
\citation{music_rules}
\@writefile{toc}{\contentsline {subsubsection}{Brak rozwi\IeC {\k a}za\IeC {\'n} uniwersalnych}{10}{section*.5}}
\newlabel{universal}{{1.4.2}{10}{Brak rozwiązań uniwersalnych}{section*.5}{}}
\@writefile{toc}{\contentsline {subsubsection}{Rygorystyczne funkcje kary dla brzmie\IeC {\'n} atonalnych}{10}{section*.6}}
\@writefile{toc}{\contentsline {section}{\numberline {1.5}Uk\IeC {\l }ad pracy}{10}{section.1.5}}
\citation{music_form}
\citation{RNN_class}
\@writefile{toc}{\contentsline {chapter}{\numberline {2}Idea automatycznej harmonizacji utwor\IeC {\'o}w muzycznych}{11}{chapter.2}}
\@writefile{lof}{\addvspace {10\p@ }}
\@writefile{lot}{\addvspace {10\p@ }}
\newlabel{rozdz.2}{{2}{11}{Idea automatycznej harmonizacji utworów muzycznych}{chapter.2}{}}
\@writefile{toc}{\contentsline {section}{\numberline {2.1}RNN G\IeC {\l }\IeC {\k e}bokie uczenie w procesie harmoniazcji}{12}{section.2.1}}
\newlabel{eq:RNN}{{2.1}{12}{RNN Głębokie uczenie w procesie harmoniazcji}{equation.2.1.1}{}}
\@writefile{toc}{\contentsline {subsection}{\numberline {2.1.1}Wsteczna propagacja b\IeC {\l }\IeC {\k e}du}{12}{subsection.2.1.1}}
\citation{RNN_class}
\@writefile{toc}{\contentsline {subsection}{\numberline {2.1.2}Problem zanikaj\IeC {\k a}cych gradient\IeC {\'o}w}{13}{subsection.2.1.2}}
\newlabel{fig:2.1.}{{2.1.2}{13}{Problem zanikających gradientów}{subsection.2.1.2}{}}
\@writefile{lof}{\contentsline {figure}{\numberline {2.1}{\ignorespaces Przyk\IeC {\l }ad nutowy}}{13}{figure.2.1}}
\citation{tutorial}
\citation{lstm_composition}
\@writefile{toc}{\contentsline {section}{\numberline {2.2}Rekurencyjne sieci LSTM}{14}{section.2.2}}
\newlabel{fig:LSTM}{{2.2}{15}{Rekurencyjne sieci LSTM}{section.2.2}{}}
\@writefile{lof}{\contentsline {figure}{\numberline {2.2}{\ignorespaces Schemat dzia\IeC {\l }ania jednostki LSTM}}{15}{figure.2.2}}
\@writefile{lof}{\contentsline {figure}{\numberline {2.3}{\ignorespaces Schemat propagacji informacji w jednostkach LSTM}}{16}{figure.2.3}}
\newlabel{fig:gates}{{2.3}{16}{Schemat propagacji informacji w jednostkach LSTM}{figure.2.3}{}}
\@writefile{toc}{\contentsline {subsection}{\numberline {2.2.1}Mo\IeC {\.z}liwo\IeC {\'s}ci jednostek LSTM}{16}{subsection.2.2.1}}
\newlabel{eq:softmax}{{2.2}{16}{Możliwości jednostek LSTM}{equation.2.2.2}{}}
\@writefile{toc}{\contentsline {section}{\numberline {2.3}Uczenie maszynowe w procesie automatycznej harmonizacji}{16}{section.2.3}}
\citation{chorale_harmoniation}
\citation{chorale_harmoniation}
\@writefile{toc}{\contentsline {subsection}{\numberline {2.3.1}Format danych wej\IeC {\'s}ciowych}{18}{subsection.2.3.1}}
\newlabel{kern}{{2.3.1}{18}{Format danych wejściowych}{subsection.2.3.1}{}}
\@writefile{toc}{\contentsline {subsubsection}{Tworzenie s\IeC {\l }ownika}{18}{section*.7}}
\newlabel{dictonary}{{2.3.1}{18}{Tworzenie słownika}{section*.7}{}}
\@writefile{toc}{\contentsline {subsection}{\numberline {2.3.2}Tworzenie modeli z\nobreakspace  {}u\IeC {\.z}yciem biblioteki Keras}{19}{subsection.2.3.2}}
\@writefile{toc}{\contentsline {subsection}{\numberline {2.3.3}Przewidywanie harmonicznego akompaniamentu}{20}{subsection.2.3.3}}
\@writefile{toc}{\contentsline {subsection}{\numberline {2.3.4}Ocena algorytmu uczenia}{20}{subsection.2.3.4}}
\@writefile{toc}{\contentsline {subsubsection}{Dok\IeC {\l }adno\IeC {\'s}\IeC {\'c} klasyfikacji}{20}{section*.8}}
\newlabel{eq:accuracy}{{2.3}{20}{Dokładność klasyfikacji}{equation.2.3.3}{}}
\@writefile{toc}{\contentsline {subsubsection}{Utrata logarytmiczna}{20}{section*.9}}
\newlabel{eq:loss}{{2.4}{21}{Utrata logarytmiczna}{equation.2.3.4}{}}
\@writefile{toc}{\contentsline {chapter}{\numberline {3}Opis programu [tytu\IeC {\l } do zmiany!]}{22}{chapter.3}}
\@writefile{lof}{\addvspace {10\p@ }}
\@writefile{lot}{\addvspace {10\p@ }}
\newlabel{rozdz.3}{{3}{22}{Opis programu [tytuł do zmiany!]}{chapter.3}{}}
\@writefile{toc}{\contentsline {section}{\numberline {3.1}Przygotowanie danych wej\IeC {\'s}ciowych}{23}{section.3.1}}
\@writefile{toc}{\contentsline {subsection}{\numberline {3.1.1}Wczytanie danych wej\IeC {\'s}ciowych}{23}{subsection.3.1.1}}
\@writefile{toc}{\contentsline {subsection}{\numberline {3.1.2}Tworzenie s\IeC {\l }ownika}{23}{subsection.3.1.2}}
\newlabel{fig:chart}{{3.1.1}{24}{Wczytanie danych wejściowych}{subsection.3.1.1}{}}
\@writefile{lof}{\contentsline {figure}{\numberline {3.1}{\ignorespaces Wizualizacja rozk\IeC {\l }adu g\IeC {\l }os\IeC {\'o}w pocz\IeC {\k a}tku trzeciej wariacji sonaty fortepianowej D-dur nr 6 Wolfganga Amadeusza Mozarta.}}{24}{figure.3.1}}
\@writefile{toc}{\contentsline {subsection}{\numberline {3.1.3}Przygotowanie danych wej\IeC {\'s}ciowych}{24}{subsection.3.1.3}}
\@writefile{toc}{\contentsline {section}{\numberline {3.2}Model}{25}{section.3.2}}
\@writefile{toc}{\contentsline {section}{\numberline {3.3}Trening}{25}{section.3.3}}
\@writefile{toc}{\contentsline {section}{\numberline {3.4}Prognozowanie i klasyfikacja}{25}{section.3.4}}
\@writefile{toc}{\contentsline {chapter}{\numberline {4}Badania i wyniki [tytu\IeC {\l } do zmiany!]}{26}{chapter.4}}
\@writefile{lof}{\addvspace {10\p@ }}
\@writefile{lot}{\addvspace {10\p@ }}
\newlabel{rozdz.4}{{4}{26}{Badania i wyniki [tytuł do zmiany!]}{chapter.4}{}}
\@writefile{toc}{\contentsline {section}{\numberline {4.1}Dob\IeC {\'o}r danych wej\IeC {\'s}ciowych}{26}{section.4.1}}
\@writefile{toc}{\contentsline {section}{\numberline {4.2}Ocena wyniku dzia\IeC {\l }ania programu}{26}{section.4.2}}
\@writefile{toc}{\contentsline {subsection}{\numberline {4.2.1}miara odleg\IeC {\l }o\IeC {\'s}ci od wyniku oczekiwanego}{27}{subsection.4.2.1}}
\@writefile{toc}{\contentsline {section}{\numberline {4.3}Ocena mo\IeC {\.z}liwo\IeC {\'s}ci wdro\IeC {\.z}enia proponowanego rozwi\IeC {\k a}zania i przysz\IeC {\l }ego rozwoju}{27}{section.4.3}}
\@writefile{toc}{\contentsline {subsection}{\numberline {4.3.1}Rozszerzenie mo\IeC {\.z}liwo\IeC {\'s}ci analizy o dok\IeC {\l }adniejszy opis wsp\IeC {\'o}\IeC {\l }brzeminia towrzysz\IeC {\k a}cemu melodii}{27}{subsection.4.3.1}}
\bibcite{GA_harmonization}{1}
\bibcite{segmentation}{2}
\bibcite{rhythm}{3}
\bibcite{recognition}{4}
\bibcite{RNN_class}{5}
\bibcite{lstm_composition}{6}
\bibcite{lstm_composition_text}{7}
\bibcite{lstm_emotions}{8}
\bibcite{tutorial}{9}
\bibcite{lstm_polyphonic_composition_Beijing}{10}
\bibcite{HMM_methodology}{11}
\bibcite{jak_nie_pisac_xD}{12}
\bibcite{chorale_harmoniation}{13}
\bibcite{music_rules}{14}
\bibcite{harmony}{15}
\bibcite{hist_harmony_kontrapkt}{16}
\bibcite{music_form}{17}
\bibcite{keras}{18}
